%!PS-Adobe-3.0 EPSF-3.0
%%Creator: (MATLAB, The Mathworks, Inc. Version 9.4.0.813654 \(R2018a\). Operating System: Linux)
%%Title: /home/dohter/git/vpfp/polar_fp/conv.eps
%%CreationDate: 2018-04-14T17:48:32
%%Pages: (atend)
%%BoundingBox: 0 0 428 338
%%LanguageLevel: 3
%%EndComments
%%BeginProlog
%%BeginResource: procset (Apache XML Graphics Std ProcSet) 1.2 0
%%Version: 1.2 0
%%Copyright: (Copyright 2001-2003,2010 The Apache Software Foundation. License terms: http://www.apache.org/licenses/LICENSE-2.0)
/bd{bind def}bind def
/ld{load def}bd
/GR/grestore ld
/GS/gsave ld
/RM/rmoveto ld
/C/curveto ld
/t/show ld
/L/lineto ld
/ML/setmiterlimit ld
/CT/concat ld
/f/fill ld
/N/newpath ld
/S/stroke ld
/CC/setcmykcolor ld
/A/ashow ld
/cp/closepath ld
/RC/setrgbcolor ld
/LJ/setlinejoin ld
/GC/setgray ld
/LW/setlinewidth ld
/M/moveto ld
/re {4 2 roll M
1 index 0 rlineto
0 exch rlineto
neg 0 rlineto
cp } bd
/_ctm matrix def
/_tm matrix def
/BT { _ctm currentmatrix pop matrix _tm copy pop 0 0 moveto } bd
/ET { _ctm setmatrix } bd
/iTm { _ctm setmatrix _tm concat } bd
/Tm { _tm astore pop iTm 0 0 moveto } bd
/ux 0.0 def
/uy 0.0 def
/F {
  /Tp exch def
  /Tf exch def
  Tf findfont Tp scalefont setfont
  /cf Tf def  /cs Tp def
} bd
/ULS {currentpoint /uy exch def /ux exch def} bd
/ULE {
  /Tcx currentpoint pop def
  gsave
  newpath
  cf findfont cs scalefont dup
  /FontMatrix get 0 get /Ts exch def /FontInfo get dup
  /UnderlinePosition get Ts mul /To exch def
  /UnderlineThickness get Ts mul /Tt exch def
  ux uy To add moveto  Tcx uy To add lineto
  Tt setlinewidth stroke
  grestore
} bd
/OLE {
  /Tcx currentpoint pop def
  gsave
  newpath
  cf findfont cs scalefont dup
  /FontMatrix get 0 get /Ts exch def /FontInfo get dup
  /UnderlinePosition get Ts mul /To exch def
  /UnderlineThickness get Ts mul /Tt exch def
  ux uy To add cs add moveto Tcx uy To add cs add lineto
  Tt setlinewidth stroke
  grestore
} bd
/SOE {
  /Tcx currentpoint pop def
  gsave
  newpath
  cf findfont cs scalefont dup
  /FontMatrix get 0 get /Ts exch def /FontInfo get dup
  /UnderlinePosition get Ts mul /To exch def
  /UnderlineThickness get Ts mul /Tt exch def
  ux uy To add cs 10 mul 26 idiv add moveto Tcx uy To add cs 10 mul 26 idiv add lineto
  Tt setlinewidth stroke
  grestore
} bd
/QT {
/Y22 exch store
/X22 exch store
/Y21 exch store
/X21 exch store
currentpoint
/Y21 load 2 mul add 3 div exch
/X21 load 2 mul add 3 div exch
/X21 load 2 mul /X22 load add 3 div
/Y21 load 2 mul /Y22 load add 3 div
/X22 load /Y22 load curveto
} bd
/SSPD {
dup length /d exch dict def
{
/v exch def
/k exch def
currentpagedevice k known {
/cpdv currentpagedevice k get def
v cpdv ne {
/upd false def
/nullv v type /nulltype eq def
/nullcpdv cpdv type /nulltype eq def
nullv nullcpdv or
{
/upd true def
} {
/sametype v type cpdv type eq def
sametype {
v type /arraytype eq {
/vlen v length def
/cpdvlen cpdv length def
vlen cpdvlen eq {
0 1 vlen 1 sub {
/i exch def
/obj v i get def
/cpdobj cpdv i get def
obj cpdobj ne {
/upd true def
exit
} if
} for
} {
/upd true def
} ifelse
} {
v type /dicttype eq {
v {
/dv exch def
/dk exch def
/cpddv cpdv dk get def
dv cpddv ne {
/upd true def
exit
} if
} forall
} {
/upd true def
} ifelse
} ifelse
} if
} ifelse
upd true eq {
d k v put
} if
} if
} if
} forall
d length 0 gt {
d setpagedevice
} if
} bd
/RE { % /NewFontName [NewEncodingArray] /FontName RE -
  findfont dup length dict begin
  {
    1 index /FID ne
    {def} {pop pop} ifelse
  } forall
  /Encoding exch def
  /FontName 1 index def
  currentdict definefont pop
  end
} bind def
%%EndResource
%%BeginResource: procset (Apache XML Graphics EPS ProcSet) 1.0 0
%%Version: 1.0 0
%%Copyright: (Copyright 2002-2003 The Apache Software Foundation. License terms: http://www.apache.org/licenses/LICENSE-2.0)
/BeginEPSF { %def
/b4_Inc_state save def         % Save state for cleanup
/dict_count countdictstack def % Count objects on dict stack
/op_count count 1 sub def      % Count objects on operand stack
userdict begin                 % Push userdict on dict stack
/showpage { } def              % Redefine showpage, { } = null proc
0 setgray 0 setlinecap         % Prepare graphics state
1 setlinewidth 0 setlinejoin
10 setmiterlimit [ ] 0 setdash newpath
/languagelevel where           % If level not equal to 1 then
{pop languagelevel             % set strokeadjust and
1 ne                           % overprint to their defaults.
{false setstrokeadjust false setoverprint
} if
} if
} bd
/EndEPSF { %def
count op_count sub {pop} repeat            % Clean up stacks
countdictstack dict_count sub {end} repeat
b4_Inc_state restore
} bd
%%EndResource
%FOPBeginFontDict
%%IncludeResource: font Courier-Oblique
%%IncludeResource: font Courier-BoldOblique
%%IncludeResource: font Courier-Bold
%%IncludeResource: font ZapfDingbats
%%IncludeResource: font Symbol
%%IncludeResource: font Helvetica
%%IncludeResource: font Helvetica-Oblique
%%IncludeResource: font Helvetica-Bold
%%IncludeResource: font Helvetica-BoldOblique
%%IncludeResource: font Times-Roman
%%IncludeResource: font Times-Italic
%%IncludeResource: font Times-Bold
%%IncludeResource: font Times-BoldItalic
%%IncludeResource: font Courier
%FOPEndFontDict
%%BeginResource: encoding WinAnsiEncoding
/WinAnsiEncoding [
/.notdef /.notdef /.notdef /.notdef /.notdef
/.notdef /.notdef /.notdef /.notdef /.notdef
/.notdef /.notdef /.notdef /.notdef /.notdef
/.notdef /.notdef /.notdef /.notdef /.notdef
/.notdef /.notdef /.notdef /.notdef /.notdef
/.notdef /.notdef /.notdef /.notdef /.notdef
/.notdef /.notdef /space /exclam /quotedbl
/numbersign /dollar /percent /ampersand /quotesingle
/parenleft /parenright /asterisk /plus /comma
/hyphen /period /slash /zero /one
/two /three /four /five /six
/seven /eight /nine /colon /semicolon
/less /equal /greater /question /at
/A /B /C /D /E
/F /G /H /I /J
/K /L /M /N /O
/P /Q /R /S /T
/U /V /W /X /Y
/Z /bracketleft /backslash /bracketright /asciicircum
/underscore /quoteleft /a /b /c
/d /e /f /g /h
/i /j /k /l /m
/n /o /p /q /r
/s /t /u /v /w
/x /y /z /braceleft /bar
/braceright /asciitilde /bullet /Euro /bullet
/quotesinglbase /florin /quotedblbase /ellipsis /dagger
/daggerdbl /circumflex /perthousand /Scaron /guilsinglleft
/OE /bullet /Zcaron /bullet /bullet
/quoteleft /quoteright /quotedblleft /quotedblright /bullet
/endash /emdash /asciitilde /trademark /scaron
/guilsinglright /oe /bullet /zcaron /Ydieresis
/space /exclamdown /cent /sterling /currency
/yen /brokenbar /section /dieresis /copyright
/ordfeminine /guillemotleft /logicalnot /sfthyphen /registered
/macron /degree /plusminus /twosuperior /threesuperior
/acute /mu /paragraph /middot /cedilla
/onesuperior /ordmasculine /guillemotright /onequarter /onehalf
/threequarters /questiondown /Agrave /Aacute /Acircumflex
/Atilde /Adieresis /Aring /AE /Ccedilla
/Egrave /Eacute /Ecircumflex /Edieresis /Igrave
/Iacute /Icircumflex /Idieresis /Eth /Ntilde
/Ograve /Oacute /Ocircumflex /Otilde /Odieresis
/multiply /Oslash /Ugrave /Uacute /Ucircumflex
/Udieresis /Yacute /Thorn /germandbls /agrave
/aacute /acircumflex /atilde /adieresis /aring
/ae /ccedilla /egrave /eacute /ecircumflex
/edieresis /igrave /iacute /icircumflex /idieresis
/eth /ntilde /ograve /oacute /ocircumflex
/otilde /odieresis /divide /oslash /ugrave
/uacute /ucircumflex /udieresis /yacute /thorn
/ydieresis
] def
%%EndResource
%FOPBeginFontReencode
/Courier-Oblique findfont
dup length dict begin
  {1 index /FID ne {def} {pop pop} ifelse} forall
  /Encoding WinAnsiEncoding def
  currentdict
end
/Courier-Oblique exch definefont pop
/Courier-BoldOblique findfont
dup length dict begin
  {1 index /FID ne {def} {pop pop} ifelse} forall
  /Encoding WinAnsiEncoding def
  currentdict
end
/Courier-BoldOblique exch definefont pop
/Courier-Bold findfont
dup length dict begin
  {1 index /FID ne {def} {pop pop} ifelse} forall
  /Encoding WinAnsiEncoding def
  currentdict
end
/Courier-Bold exch definefont pop
/Helvetica findfont
dup length dict begin
  {1 index /FID ne {def} {pop pop} ifelse} forall
  /Encoding WinAnsiEncoding def
  currentdict
end
/Helvetica exch definefont pop
/Helvetica-Oblique findfont
dup length dict begin
  {1 index /FID ne {def} {pop pop} ifelse} forall
  /Encoding WinAnsiEncoding def
  currentdict
end
/Helvetica-Oblique exch definefont pop
/Helvetica-Bold findfont
dup length dict begin
  {1 index /FID ne {def} {pop pop} ifelse} forall
  /Encoding WinAnsiEncoding def
  currentdict
end
/Helvetica-Bold exch definefont pop
/Helvetica-BoldOblique findfont
dup length dict begin
  {1 index /FID ne {def} {pop pop} ifelse} forall
  /Encoding WinAnsiEncoding def
  currentdict
end
/Helvetica-BoldOblique exch definefont pop
/Times-Roman findfont
dup length dict begin
  {1 index /FID ne {def} {pop pop} ifelse} forall
  /Encoding WinAnsiEncoding def
  currentdict
end
/Times-Roman exch definefont pop
/Times-Italic findfont
dup length dict begin
  {1 index /FID ne {def} {pop pop} ifelse} forall
  /Encoding WinAnsiEncoding def
  currentdict
end
/Times-Italic exch definefont pop
/Times-Bold findfont
dup length dict begin
  {1 index /FID ne {def} {pop pop} ifelse} forall
  /Encoding WinAnsiEncoding def
  currentdict
end
/Times-Bold exch definefont pop
/Times-BoldItalic findfont
dup length dict begin
  {1 index /FID ne {def} {pop pop} ifelse} forall
  /Encoding WinAnsiEncoding def
  currentdict
end
/Times-BoldItalic exch definefont pop
/Courier findfont
dup length dict begin
  {1 index /FID ne {def} {pop pop} ifelse} forall
  /Encoding WinAnsiEncoding def
  currentdict
end
/Courier exch definefont pop
%FOPEndFontReencode
%%EndProlog
%%Page: 1 1
%%PageBoundingBox: 0 0 428 338
%%BeginPageSetup
[1 0 0 -1 0 338] CT
%%EndPageSetup
GS
[0.75 0 0 0.75 0 0.5] CT
N
0 0 M
570 0 L
570 450 L
0 450 L
0 0 L
cp
clip
1 GC
N
0 0 570 450 re
f
GR
GS
[0.75 0 0 0.75 0 0.5] CT
1 GC
N
0 0 570 450 re
f
GR
GS
[0.75 0 0 0.75 0 0.5] CT
1 GC
N
90 386 M
516 386 L
516 34 L
90 34 L
cp
f
GR
GS
[0.75 0 0 0.75 0 0.5] CT
0.873 GC
1 LJ
0.667 LW
N
139.154 386 M
139.154 34 L
S
GR
GS
[0.75 0 0 0.75 0 0.5] CT
0.873 GC
1 LJ
0.667 LW
N
221.077 386 M
221.077 34 L
S
GR
GS
[0.75 0 0 0.75 0 0.5] CT
0.873 GC
1 LJ
0.667 LW
N
303 386 M
303 34 L
S
GR
GS
[0.75 0 0 0.75 0 0.5] CT
0.873 GC
1 LJ
0.667 LW
N
384.923 386 M
384.923 34 L
S
GR
GS
[0.75 0 0 0.75 0 0.5] CT
0.873 GC
1 LJ
0.667 LW
N
466.846 386 M
466.846 34 L
S
GR
GS
[0.75 0 0 0.75 0 0.5] CT
0.775 GC
[1 3] 0 setdash
2 LJ
0.667 LW
N
516 356.667 M
90 356.667 L
S
GR
GS
[0.75 0 0 0.75 0 0.5] CT
0.775 GC
[1 3] 0 setdash
2 LJ
0.667 LW
N
516 327.333 M
90 327.333 L
S
GR
GS
[0.75 0 0 0.75 0 0.5] CT
0.775 GC
[1 3] 0 setdash
2 LJ
0.667 LW
N
516 298 M
90 298 L
S
GR
GS
[0.75 0 0 0.75 0 0.5] CT
0.775 GC
[1 3] 0 setdash
2 LJ
0.667 LW
N
516 268.667 M
90 268.667 L
S
GR
GS
[0.75 0 0 0.75 0 0.5] CT
0.775 GC
[1 3] 0 setdash
2 LJ
0.667 LW
N
516 210 M
90 210 L
S
GR
GS
[0.75 0 0 0.75 0 0.5] CT
0.775 GC
[1 3] 0 setdash
2 LJ
0.667 LW
N
516 180.667 M
90 180.667 L
S
GR
GS
[0.75 0 0 0.75 0 0.5] CT
0.775 GC
[1 3] 0 setdash
2 LJ
0.667 LW
N
516 151.333 M
90 151.333 L
S
GR
GS
[0.75 0 0 0.75 0 0.5] CT
0.775 GC
[1 3] 0 setdash
2 LJ
0.667 LW
N
516 122 M
90 122 L
S
GR
GS
[0.75 0 0 0.75 0 0.5] CT
0.775 GC
[1 3] 0 setdash
2 LJ
0.667 LW
N
516 63.333 M
90 63.333 L
S
GR
GS
[0.75 0 0 0.75 0 0.5] CT
0.775 GC
[1 3] 0 setdash
2 LJ
0.667 LW
N
516 34 M
90 34 L
S
GR
GS
[0.75 0 0 0.75 0 0.5] CT
0.873 GC
1 LJ
0.667 LW
N
516 386 M
90 386 L
S
GR
GS
[0.75 0 0 0.75 0 0.5] CT
0.873 GC
1 LJ
0.667 LW
N
516 239.333 M
90 239.333 L
S
GR
GS
[0.75 0 0 0.75 0 0.5] CT
0.873 GC
1 LJ
0.667 LW
N
516 92.667 M
90 92.667 L
S
GR
GS
[0.75 0 0 0.75 0 0.5] CT
0.149 GC
2 setlinecap
1 LJ
0.667 LW
N
90 386 M
516 386 L
S
GR
GS
[0.75 0 0 0.75 0 0.5] CT
0.149 GC
2 setlinecap
1 LJ
0.667 LW
N
90 34 M
516 34 L
S
GR
GS
[0.75 0 0 0.75 0 0.5] CT
0.149 GC
2 setlinecap
1 LJ
0.667 LW
N
139.154 386 M
139.154 381.74 L
S
GR
GS
[0.75 0 0 0.75 0 0.5] CT
0.149 GC
2 setlinecap
1 LJ
0.667 LW
N
221.077 386 M
221.077 381.74 L
S
GR
GS
[0.75 0 0 0.75 0 0.5] CT
0.149 GC
2 setlinecap
1 LJ
0.667 LW
N
303 386 M
303 381.74 L
S
GR
GS
[0.75 0 0 0.75 0 0.5] CT
0.149 GC
2 setlinecap
1 LJ
0.667 LW
N
384.923 386 M
384.923 381.74 L
S
GR
GS
[0.75 0 0 0.75 0 0.5] CT
0.149 GC
2 setlinecap
1 LJ
0.667 LW
N
466.846 386 M
466.846 381.74 L
S
GR
GS
[0.75 0 0 0.75 0 0.5] CT
0.149 GC
2 setlinecap
1 LJ
0.667 LW
N
139.154 34 M
139.154 38.26 L
S
GR
GS
[0.75 0 0 0.75 0 0.5] CT
0.149 GC
2 setlinecap
1 LJ
0.667 LW
N
221.077 34 M
221.077 38.26 L
S
GR
GS
[0.75 0 0 0.75 0 0.5] CT
0.149 GC
2 setlinecap
1 LJ
0.667 LW
N
303 34 M
303 38.26 L
S
GR
GS
[0.75 0 0 0.75 0 0.5] CT
0.149 GC
2 setlinecap
1 LJ
0.667 LW
N
384.923 34 M
384.923 38.26 L
S
GR
GS
[0.75 0 0 0.75 0 0.5] CT
0.149 GC
2 setlinecap
1 LJ
0.667 LW
N
466.846 34 M
466.846 38.26 L
S
GR
GS
[0.75 0 0 0.75 104.36538 294.8] CT
0.149 GC
/Helvetica 18.667 F
GS
[1 0 0 1 0 0] CT
-12 18 moveto 
1 -1 scale
(20) t 
GR
GR
GS
[0.75 0 0 0.75 165.8077 294.8] CT
0.149 GC
/Helvetica 18.667 F
GS
[1 0 0 1 0 0] CT
-12 18 moveto 
1 -1 scale
(30) t 
GR
GR
GS
[0.75 0 0 0.75 227.25 294.8] CT
0.149 GC
/Helvetica 18.667 F
GS
[1 0 0 1 0 0] CT
-12 18 moveto 
1 -1 scale
(40) t 
GR
GR
GS
[0.75 0 0 0.75 288.69232 294.8] CT
0.149 GC
/Helvetica 18.667 F
GS
[1 0 0 1 0 0] CT
-12 18 moveto 
1 -1 scale
(50) t 
GR
GR
GS
[0.75 0 0 0.75 350.1346 294.8] CT
0.149 GC
/Helvetica 18.667 F
GS
[1 0 0 1 0 0] CT
-12 18 moveto 
1 -1 scale
(60) t 
GR
GR
GS
[0.75 0 0 0.75 219 327.5] CT
0.149 GC
/Helvetica 20.533 F
GS
[1 0 0 1 0 0] CT
0 0 moveto 
1 -1 scale
(n) t 
GR
GR
GS
[0.75 0 0 0.75 229.5 335] CT
0.149 GC
/Helvetica 16.427 F
GS
[1 0 0 1 0 0] CT
0 0 moveto 
1 -1 scale
(r) t 
GR
GR
GS
[0.75 0 0 0.75 0 0.5] CT
0.149 GC
2 setlinecap
1 LJ
0.667 LW
N
90 386 M
90 34 L
S
GR
GS
[0.75 0 0 0.75 0 0.5] CT
0.149 GC
2 setlinecap
1 LJ
0.667 LW
N
516 386 M
516 34 L
S
GR
GS
[0.75 0 0 0.75 0 0.5] CT
0.149 GC
2 setlinecap
1 LJ
0.667 LW
N
90 386 M
94.26 386 L
S
GR
GS
[0.75 0 0 0.75 0 0.5] CT
0.149 GC
2 setlinecap
1 LJ
0.667 LW
N
90 239.333 M
94.26 239.333 L
S
GR
GS
[0.75 0 0 0.75 0 0.5] CT
0.149 GC
2 setlinecap
1 LJ
0.667 LW
N
90 92.667 M
94.26 92.667 L
S
GR
GS
[0.75 0 0 0.75 0 0.5] CT
0.149 GC
2 setlinecap
1 LJ
0.667 LW
N
516 386 M
511.74 386 L
S
GR
GS
[0.75 0 0 0.75 0 0.5] CT
0.149 GC
2 setlinecap
1 LJ
0.667 LW
N
516 239.333 M
511.74 239.333 L
S
GR
GS
[0.75 0 0 0.75 0 0.5] CT
0.149 GC
2 setlinecap
1 LJ
0.667 LW
N
516 92.667 M
511.74 92.667 L
S
GR
GS
[0.75 0 0 0.75 0 0.5] CT
0.149 GC
2 setlinecap
1 LJ
0.667 LW
N
90 386 M
92.13 386 L
S
GR
GS
[0.75 0 0 0.75 0 0.5] CT
0.149 GC
2 setlinecap
1 LJ
0.667 LW
N
90 356.667 M
92.13 356.667 L
S
GR
GS
[0.75 0 0 0.75 0 0.5] CT
0.149 GC
2 setlinecap
1 LJ
0.667 LW
N
90 327.333 M
92.13 327.333 L
S
GR
GS
[0.75 0 0 0.75 0 0.5] CT
0.149 GC
2 setlinecap
1 LJ
0.667 LW
N
90 298 M
92.13 298 L
S
GR
GS
[0.75 0 0 0.75 0 0.5] CT
0.149 GC
2 setlinecap
1 LJ
0.667 LW
N
90 268.667 M
92.13 268.667 L
S
GR
GS
[0.75 0 0 0.75 0 0.5] CT
0.149 GC
2 setlinecap
1 LJ
0.667 LW
N
90 239.333 M
92.13 239.333 L
S
GR
GS
[0.75 0 0 0.75 0 0.5] CT
0.149 GC
2 setlinecap
1 LJ
0.667 LW
N
90 210 M
92.13 210 L
S
GR
GS
[0.75 0 0 0.75 0 0.5] CT
0.149 GC
2 setlinecap
1 LJ
0.667 LW
N
90 180.667 M
92.13 180.667 L
S
GR
GS
[0.75 0 0 0.75 0 0.5] CT
0.149 GC
2 setlinecap
1 LJ
0.667 LW
N
90 151.333 M
92.13 151.333 L
S
GR
GS
[0.75 0 0 0.75 0 0.5] CT
0.149 GC
2 setlinecap
1 LJ
0.667 LW
N
90 122 M
92.13 122 L
S
GR
GS
[0.75 0 0 0.75 0 0.5] CT
0.149 GC
2 setlinecap
1 LJ
0.667 LW
N
90 92.667 M
92.13 92.667 L
S
GR
GS
[0.75 0 0 0.75 0 0.5] CT
0.149 GC
2 setlinecap
1 LJ
0.667 LW
N
90 63.333 M
92.13 63.333 L
S
GR
GS
[0.75 0 0 0.75 0 0.5] CT
0.149 GC
2 setlinecap
1 LJ
0.667 LW
N
90 34 M
92.13 34 L
S
GR
GS
[0.75 0 0 0.75 0 0.5] CT
0.149 GC
2 setlinecap
1 LJ
0.667 LW
N
516 386 M
513.87 386 L
S
GR
GS
[0.75 0 0 0.75 0 0.5] CT
0.149 GC
2 setlinecap
1 LJ
0.667 LW
N
516 356.667 M
513.87 356.667 L
S
GR
GS
[0.75 0 0 0.75 0 0.5] CT
0.149 GC
2 setlinecap
1 LJ
0.667 LW
N
516 327.333 M
513.87 327.333 L
S
GR
GS
[0.75 0 0 0.75 0 0.5] CT
0.149 GC
2 setlinecap
1 LJ
0.667 LW
N
516 298 M
513.87 298 L
S
GR
GS
[0.75 0 0 0.75 0 0.5] CT
0.149 GC
2 setlinecap
1 LJ
0.667 LW
N
516 268.667 M
513.87 268.667 L
S
GR
GS
[0.75 0 0 0.75 0 0.5] CT
0.149 GC
2 setlinecap
1 LJ
0.667 LW
N
516 239.333 M
513.87 239.333 L
S
GR
GS
[0.75 0 0 0.75 0 0.5] CT
0.149 GC
2 setlinecap
1 LJ
0.667 LW
N
516 210 M
513.87 210 L
S
GR
GS
[0.75 0 0 0.75 0 0.5] CT
0.149 GC
2 setlinecap
1 LJ
0.667 LW
N
516 180.667 M
513.87 180.667 L
S
GR
GS
[0.75 0 0 0.75 0 0.5] CT
0.149 GC
2 setlinecap
1 LJ
0.667 LW
N
516 151.333 M
513.87 151.333 L
S
GR
GS
[0.75 0 0 0.75 0 0.5] CT
0.149 GC
2 setlinecap
1 LJ
0.667 LW
N
516 122 M
513.87 122 L
S
GR
GS
[0.75 0 0 0.75 0 0.5] CT
0.149 GC
2 setlinecap
1 LJ
0.667 LW
N
516 92.667 M
513.87 92.667 L
S
GR
GS
[0.75 0 0 0.75 0 0.5] CT
0.149 GC
2 setlinecap
1 LJ
0.667 LW
N
516 63.333 M
513.87 63.333 L
S
GR
GS
[0.75 0 0 0.75 0 0.5] CT
0.149 GC
2 setlinecap
1 LJ
0.667 LW
N
516 34 M
513.87 34 L
S
GR
GS
[0.75 0 0 0.75 26.25 296.75] CT
0.149 GC
/Helvetica 18.667 F
GS
[1 0 0 1 0 0] CT
0 0 moveto 
1 -1 scale
(10) t 
GR
GR
GS
[0.75 0 0 0.75 44.25 290] CT
0.149 GC
/Helvetica 14.933 F
GS
[1 0 0 1 0 0] CT
0 0 moveto 
1 -1 scale
(-15) t 
GR
GR
GS
[0.75 0 0 0.75 26.25 186.5] CT
0.149 GC
/Helvetica 18.667 F
GS
[1 0 0 1 0 0] CT
0 0 moveto 
1 -1 scale
(10) t 
GR
GR
GS
[0.75 0 0 0.75 44.25 179.75] CT
0.149 GC
/Helvetica 14.933 F
GS
[1 0 0 1 0 0] CT
0 0 moveto 
1 -1 scale
(-10) t 
GR
GR
GS
[0.75 0 0 0.75 33.75 77] CT
0.149 GC
/Helvetica 18.667 F
GS
[1 0 0 1 0 0] CT
0 0 moveto 
1 -1 scale
(10) t 
GR
GR
GS
[0.75 0 0 0.75 51.75 70.25] CT
0.149 GC
/Helvetica 14.933 F
GS
[1 0 0 1 0 0] CT
0 0 moveto 
1 -1 scale
(-5) t 
GR
GR
GS
[0 -0.75 0.75 0 15 173.75] CT
0.149 GC
N
4.406 -16.047 M
4.406 4.953 L
2.672 4.953 L
2.672 -16.047 L
4.406 -16.047 L
cp
10.964 -6.188 M
9.824 -6.438 9.199 -7.109 QT
8.589 -7.766 8.589 -8.719 QT
8.589 -10.156 9.761 -10.969 QT
10.917 -11.766 12.933 -11.766 QT
13.699 -11.766 14.574 -11.648 QT
15.449 -11.531 16.449 -11.281 QT
16.449 -9.563 L
15.464 -9.859 14.636 -10 QT
13.808 -10.125 13.074 -10.125 QT
11.855 -10.125 11.152 -9.656 QT
10.433 -9.188 10.433 -8.531 QT
10.433 -7.813 11.136 -7.359 QT
11.824 -6.906 13.011 -6.906 QT
14.605 -6.906 L
14.605 -5.344 L
13.074 -5.344 L
11.683 -5.344 10.933 -4.813 QT
10.136 -4.25 10.136 -3.344 QT
10.136 -2.422 10.995 -1.844 QT
11.87 -1.266 13.417 -1.266 QT
14.37 -1.266 15.245 -1.453 QT
16.12 -1.656 16.839 -2.031 QT
16.839 -0.281 L
15.917 0.016 15.058 0.156 QT
14.183 0.297 13.37 0.297 QT
10.933 0.297 9.605 -0.641 QT
8.277 -1.563 8.277 -3.344 QT
8.277 -4.453 8.988 -5.203 QT
9.699 -5.953 10.964 -6.188 QT
cp
22.421 -16.047 M
22.421 4.953 L
20.687 4.953 L
20.687 -16.047 L
22.421 -16.047 L
cp
f
GR
GS
[0 -0.75 0.75 0 22.5 155] CT
0.149 GC
N
3.938 0.188 M
3.031 0.188 2.336 -0.352 QT
1.641 -0.891 1.273 -1.734 QT
0.906 -2.578 0.906 -3.453 QT
0.906 -4.141 1.117 -4.789 QT
1.328 -5.438 1.734 -5.953 QT
2.141 -6.469 2.719 -6.773 QT
3.297 -7.078 3.984 -7.078 QT
4.703 -7.078 5.375 -6.805 QT
6.047 -6.531 6.609 -6.078 QT
7.172 -5.625 7.656 -5.031 QT
8.125 -4.391 L
8.609 -5.141 9.188 -5.742 QT
9.766 -6.344 10.492 -6.711 QT
11.219 -7.078 12.047 -7.078 QT
12.75 -7.078 13.32 -6.766 QT
13.891 -6.453 14.289 -5.922 QT
14.688 -5.391 14.891 -4.75 QT
15.094 -4.109 15.094 -3.453 QT
15.094 -2.547 14.711 -1.711 QT
14.328 -0.875 13.633 -0.344 QT
12.938 0.188 12 0.188 QT
10.953 0.188 10.016 -0.383 QT
9.078 -0.953 8.344 -1.875 QT
7.859 -2.516 L
7.125 -1.328 6.133 -0.57 QT
5.141 0.188 3.938 0.188 QT
cp
3.781 -0.391 M
5.813 -0.391 7.406 -3.109 QT
6.563 -4.188 L
5.828 -5.156 5.195 -5.703 QT
4.563 -6.25 3.734 -6.25 QT
3.016 -6.25 2.469 -5.844 QT
1.922 -5.438 1.617 -4.789 QT
1.313 -4.141 1.313 -3.438 QT
1.313 -2.906 1.484 -2.359 QT
1.656 -1.813 1.977 -1.367 QT
2.297 -0.922 2.75 -0.656 QT
3.203 -0.391 3.781 -0.391 QT
cp
9.422 -2.719 M
10.156 -1.75 10.789 -1.203 QT
11.422 -0.656 12.266 -0.656 QT
12.797 -0.656 13.242 -0.891 QT
13.688 -1.125 14.008 -1.523 QT
14.328 -1.922 14.5 -2.422 QT
14.672 -2.922 14.672 -3.453 QT
14.672 -4.203 14.375 -4.906 QT
14.078 -5.609 13.523 -6.063 QT
12.969 -6.516 12.219 -6.516 QT
10.188 -6.516 8.578 -3.797 QT
9.422 -2.719 L
cp
f
GR
GS
[0.75 0 0 0.75 0 0.5] CT
1 LJ
2.667 LW
N
106.385 42.962 M
139.154 57.463 L
171.923 74.524 L
204.692 88.659 L
237.462 88.32 L
270.231 88.094 L
303 87.934 L
335.769 87.817 L
368.538 87.728 L
401.308 87.66 L
434.077 87.606 L
466.846 87.562 L
499.615 87.527 L
S
GR
GS
[0.75 0 0 0.75 79.78846 32.72127] CT
10.0 ML
2.667 LW
N
-4 0 M
0 5.32 L
4 0 L
0 -5.32 L
cp
S
GR
GS
[0.75 0 0 0.75 104.36538 43.59706] CT
10.0 ML
2.667 LW
N
-4 0 M
0 5.32 L
4 0 L
0 -5.32 L
cp
S
GR
GS
[0.75 0 0 0.75 128.94231 56.39286] CT
10.0 ML
2.667 LW
N
-4 0 M
0 5.32 L
4 0 L
0 -5.32 L
cp
S
GR
GS
[0.75 0 0 0.75 153.51923 66.99418] CT
10.0 ML
2.667 LW
N
-4 0 M
0 5.32 L
4 0 L
0 -5.32 L
cp
S
GR
GS
[0.75 0 0 0.75 178.09616 66.74009] CT
10.0 ML
2.667 LW
N
-4 0 M
0 5.32 L
4 0 L
0 -5.32 L
cp
S
GR
GS
[0.75 0 0 0.75 202.67308 66.57047] CT
10.0 ML
2.667 LW
N
-4 0 M
0 5.32 L
4 0 L
0 -5.32 L
cp
S
GR
GS
[0.75 0 0 0.75 227.25 66.45068] CT
10.0 ML
2.667 LW
N
-4 0 M
0 5.32 L
4 0 L
0 -5.32 L
cp
S
GR
GS
[0.75 0 0 0.75 251.82692 66.36278] CT
10.0 ML
2.667 LW
N
-4 0 M
0 5.32 L
4 0 L
0 -5.32 L
cp
S
GR
GS
[0.75 0 0 0.75 276.40384 66.29634] CT
10.0 ML
2.667 LW
N
-4 0 M
0 5.32 L
4 0 L
0 -5.32 L
cp
S
GR
GS
[0.75 0 0 0.75 300.98076 66.24491] CT
10.0 ML
2.667 LW
N
-4 0 M
0 5.32 L
4 0 L
0 -5.32 L
cp
S
GR
GS
[0.75 0 0 0.75 325.55768 66.20427] CT
10.0 ML
2.667 LW
N
-4 0 M
0 5.32 L
4 0 L
0 -5.32 L
cp
S
GR
GS
[0.75 0 0 0.75 350.1346 66.17162] CT
10.0 ML
2.667 LW
N
-4 0 M
0 5.32 L
4 0 L
0 -5.32 L
cp
S
GR
GS
[0.75 0 0 0.75 374.71154 66.14498] CT
10.0 ML
2.667 LW
N
-4 0 M
0 5.32 L
4 0 L
0 -5.32 L
cp
S
GR
GS
[0.75 0 0 0.75 0 0.5] CT
1 0 0 RC
1 LJ
2.667 LW
N
106.385 43.143 M
139.154 57.712 L
171.923 75.08 L
204.692 94.688 L
237.462 116.462 L
270.231 140.348 L
303 166.264 L
335.769 194.109 L
368.538 202.715 L
401.308 202.647 L
434.077 202.592 L
466.846 202.549 L
499.615 202.513 L
S
GR
GS
[0.75 0 0 0.75 79.78846 32.85708] CT
1 0 0 RC
10.0 ML
2.667 LW
N
0 -4 M
0 4 L
-4 0 M
4 0 L
-2.828 -2.828 M
2.828 2.828 L
-2.828 2.828 M
2.828 -2.828 L
S
GR
GS
[0.75 0 0 0.75 104.36538 43.78436] CT
1 0 0 RC
10.0 ML
2.667 LW
N
0 -4 M
0 4 L
-4 0 M
4 0 L
-2.828 -2.828 M
2.828 2.828 L
-2.828 2.828 M
2.828 -2.828 L
S
GR
GS
[0.75 0 0 0.75 128.94231 56.81029] CT
1 0 0 RC
10.0 ML
2.667 LW
N
0 -4 M
0 4 L
-4 0 M
4 0 L
-2.828 -2.828 M
2.828 2.828 L
-2.828 2.828 M
2.828 -2.828 L
S
GR
GS
[0.75 0 0 0.75 153.51923 71.51632] CT
1 0 0 RC
10.0 ML
2.667 LW
N
0 -4 M
0 4 L
-4 0 M
4 0 L
-2.828 -2.828 M
2.828 2.828 L
-2.828 2.828 M
2.828 -2.828 L
S
GR
GS
[0.75 0 0 0.75 178.09616 87.84678] CT
1 0 0 RC
10.0 ML
2.667 LW
N
0 -4 M
0 4 L
-4 0 M
4 0 L
-2.828 -2.828 M
2.828 2.828 L
-2.828 2.828 M
2.828 -2.828 L
S
GR
GS
[0.75 0 0 0.75 202.67308 105.76115] CT
1 0 0 RC
10.0 ML
2.667 LW
N
0 -4 M
0 4 L
-4 0 M
4 0 L
-2.828 -2.828 M
2.828 2.828 L
-2.828 2.828 M
2.828 -2.828 L
S
GR
GS
[0.75 0 0 0.75 227.25 125.19775] CT
1 0 0 RC
10.0 ML
2.667 LW
N
0 -4 M
0 4 L
-4 0 M
4 0 L
-2.828 -2.828 M
2.828 2.828 L
-2.828 2.828 M
2.828 -2.828 L
S
GR
GS
[0.75 0 0 0.75 251.82692 146.08168] CT
1 0 0 RC
10.0 ML
2.667 LW
N
0 -4 M
0 4 L
-4 0 M
4 0 L
-2.828 -2.828 M
2.828 2.828 L
-2.828 2.828 M
2.828 -2.828 L
S
GR
GS
[0.75 0 0 0.75 276.40384 152.53633] CT
1 0 0 RC
10.0 ML
2.667 LW
N
0 -4 M
0 4 L
-4 0 M
4 0 L
-2.828 -2.828 M
2.828 2.828 L
-2.828 2.828 M
2.828 -2.828 L
S
GR
GS
[0.75 0 0 0.75 300.98076 152.48489] CT
1 0 0 RC
10.0 ML
2.667 LW
N
0 -4 M
0 4 L
-4 0 M
4 0 L
-2.828 -2.828 M
2.828 2.828 L
-2.828 2.828 M
2.828 -2.828 L
S
GR
GS
[0.75 0 0 0.75 325.55768 152.44426] CT
1 0 0 RC
10.0 ML
2.667 LW
N
0 -4 M
0 4 L
-4 0 M
4 0 L
-2.828 -2.828 M
2.828 2.828 L
-2.828 2.828 M
2.828 -2.828 L
S
GR
GS
[0.75 0 0 0.75 350.1346 152.4116] CT
1 0 0 RC
10.0 ML
2.667 LW
N
0 -4 M
0 4 L
-4 0 M
4 0 L
-2.828 -2.828 M
2.828 2.828 L
-2.828 2.828 M
2.828 -2.828 L
S
GR
GS
[0.75 0 0 0.75 374.71154 152.38497] CT
1 0 0 RC
10.0 ML
2.667 LW
N
0 -4 M
0 4 L
-4 0 M
4 0 L
-2.828 -2.828 M
2.828 2.828 L
-2.828 2.828 M
2.828 -2.828 L
S
GR
GS
[0.75 0 0 0.75 0 0.5] CT
0 0 1 RC
1 LJ
2.667 LW
N
106.385 43.143 M
139.154 57.712 L
171.923 75.08 L
204.692 94.688 L
237.462 116.462 L
270.231 140.348 L
303 166.264 L
335.769 194.116 L
368.538 223.804 L
401.308 255.261 L
434.077 288.77 L
466.846 319.926 L
499.615 319.303 L
S
GR
GS
[0.75 0 0 0.75 79.78846 32.8571] CT
0 0 1 RC
10.0 ML
2.667 LW
N
4 0 M
4 -2.209 2.209 -4 0 -4 C
-2.209 -4 -4 -2.209 -4 0 C
-4 2.209 -2.209 4 0 4 C
2.209 4 4 2.209 4 0 C
cp
S
GR
GS
[0.75 0 0 0.75 104.36538 43.78436] CT
0 0 1 RC
10.0 ML
2.667 LW
N
4 0 M
4 -2.209 2.209 -4 0 -4 C
-2.209 -4 -4 -2.209 -4 0 C
-4 2.209 -2.209 4 0 4 C
2.209 4 4 2.209 4 0 C
cp
S
GR
GS
[0.75 0 0 0.75 128.94231 56.81031] CT
0 0 1 RC
10.0 ML
2.667 LW
N
4 0 M
4 -2.209 2.209 -4 0 -4 C
-2.209 -4 -4 -2.209 -4 0 C
-4 2.209 -2.209 4 0 4 C
2.209 4 4 2.209 4 0 C
cp
S
GR
GS
[0.75 0 0 0.75 153.51923 71.51632] CT
0 0 1 RC
10.0 ML
2.667 LW
N
4 0 M
4 -2.209 2.209 -4 0 -4 C
-2.209 -4 -4 -2.209 -4 0 C
-4 2.209 -2.209 4 0 4 C
2.209 4 4 2.209 4 0 C
cp
S
GR
GS
[0.75 0 0 0.75 178.09616 87.8468] CT
0 0 1 RC
10.0 ML
2.667 LW
N
4 0 M
4 -2.209 2.209 -4 0 -4 C
-2.209 -4 -4 -2.209 -4 0 C
-4 2.209 -2.209 4 0 4 C
2.209 4 4 2.209 4 0 C
cp
S
GR
GS
[0.75 0 0 0.75 202.67308 105.76123] CT
0 0 1 RC
10.0 ML
2.667 LW
N
4 0 M
4 -2.209 2.209 -4 0 -4 C
-2.209 -4 -4 -2.209 -4 0 C
-4 2.209 -2.209 4 0 4 C
2.209 4 4 2.209 4 0 C
cp
S
GR
GS
[0.75 0 0 0.75 227.25 125.19836] CT
0 0 1 RC
10.0 ML
2.667 LW
N
4 0 M
4 -2.209 2.209 -4 0 -4 C
-2.209 -4 -4 -2.209 -4 0 C
-4 2.209 -2.209 4 0 4 C
2.209 4 4 2.209 4 0 C
cp
S
GR
GS
[0.75 0 0 0.75 251.82692 146.08719] CT
0 0 1 RC
10.0 ML
2.667 LW
N
4 0 M
4 -2.209 2.209 -4 0 -4 C
-2.209 -4 -4 -2.209 -4 0 C
-4 2.209 -2.209 4 0 4 C
2.209 4 4 2.209 4 0 C
cp
S
GR
GS
[0.75 0 0 0.75 276.40384 168.35316] CT
0 0 1 RC
10.0 ML
2.667 LW
N
4 0 M
4 -2.209 2.209 -4 0 -4 C
-2.209 -4 -4 -2.209 -4 0 C
-4 2.209 -2.209 4 0 4 C
2.209 4 4 2.209 4 0 C
cp
S
GR
GS
[0.75 0 0 0.75 300.98076 191.94593] CT
0 0 1 RC
10.0 ML
2.667 LW
N
4 0 M
4 -2.209 2.209 -4 0 -4 C
-2.209 -4 -4 -2.209 -4 0 C
-4 2.209 -2.209 4 0 4 C
2.209 4 4 2.209 4 0 C
cp
S
GR
GS
[0.75 0 0 0.75 325.55768 217.07729] CT
0 0 1 RC
10.0 ML
2.667 LW
N
4 0 M
4 -2.209 2.209 -4 0 -4 C
-2.209 -4 -4 -2.209 -4 0 C
-4 2.209 -2.209 4 0 4 C
2.209 4 4 2.209 4 0 C
cp
S
GR
GS
[0.75 0 0 0.75 350.1346 240.44424] CT
0 0 1 RC
10.0 ML
2.667 LW
N
4 0 M
4 -2.209 2.209 -4 0 -4 C
-2.209 -4 -4 -2.209 -4 0 C
-4 2.209 -2.209 4 0 4 C
2.209 4 4 2.209 4 0 C
cp
S
GR
GS
[0.75 0 0 0.75 374.71154 239.97739] CT
0 0 1 RC
10.0 ML
2.667 LW
N
4 0 M
4 -2.209 2.209 -4 0 -4 C
-2.209 -4 -4 -2.209 -4 0 C
-4 2.209 -2.209 4 0 4 C
2.209 4 4 2.209 4 0 C
cp
S
GR
GS
[0.75 0 0 0.75 0 0.5] CT
1 GC
N
286 325 M
286 260 L
161 260 L
161 325 L
cp
f
GR
GS
[0.75 0 0 0.75 156 209] CT
N
0.922 0 M
0.781 0 0.781 -0.141 QT
0.781 -0.156 0.789 -0.164 QT
0.797 -0.172 0.797 -0.188 QT
6.656 -11.984 L
6.719 -12.172 6.953 -12.172 QT
7.188 -12.172 L
7.422 -12.172 7.5 -11.984 QT
13.344 -0.188 L
13.359 -0.172 13.359 -0.164 QT
13.359 -0.156 13.359 -0.141 QT
13.359 0 13.219 0 QT
0.922 0 L
cp
2.047 -1.359 M
11 -1.359 L
6.531 -10.391 L
2.047 -1.359 L
cp
f
GR
GS
[0.75 0 0 0.75 166.5 209] CT
N
2.734 0.188 M
1.969 0.188 1.5 -0.375 QT
1.031 -0.938 0.859 -1.734 QT
0.688 -2.531 0.688 -3.313 QT
0.688 -3.328 L
0.688 -4.172 0.844 -5.086 QT
1 -6 1.313 -6.906 QT
1.625 -7.813 1.969 -8.531 QT
2.219 -9.031 2.617 -9.648 QT
3.016 -10.266 3.5 -10.797 QT
3.984 -11.328 4.547 -11.656 QT
5.109 -11.984 5.672 -11.984 QT
5.688 -11.984 L
6.313 -11.984 6.719 -11.648 QT
7.125 -11.313 7.359 -10.781 QT
7.594 -10.25 7.68 -9.641 QT
7.766 -9.031 7.766 -8.484 QT
7.766 -7.203 7.422 -5.859 QT
7.078 -4.516 6.453 -3.266 QT
6.219 -2.797 5.813 -2.156 QT
5.406 -1.516 4.945 -1.008 QT
4.484 -0.5 3.914 -0.156 QT
3.344 0.188 2.75 0.188 QT
2.734 0.188 L
cp
2.766 -0.25 M
3.344 -0.25 3.859 -0.859 QT
4.375 -1.469 4.766 -2.32 QT
5.156 -3.172 5.453 -4.078 QT
5.75 -4.984 5.891 -5.609 QT
2.422 -5.609 L
2.156 -4.547 2 -3.766 QT
1.844 -2.984 1.844 -2.234 QT
1.844 -0.25 2.766 -0.25 QT
cp
2.547 -6.203 M
6.031 -6.203 L
6.219 -6.953 6.328 -7.453 QT
6.438 -7.953 6.508 -8.516 QT
6.578 -9.078 6.578 -9.547 QT
6.578 -11.547 5.672 -11.547 QT
4.594 -11.547 3.813 -9.805 QT
3.031 -8.063 2.547 -6.203 QT
cp
f
GR
GS
[0.75 0 0 0.75 172.5 209] CT
/Helvetica 16.8 F
GS
[1 0 0 1 0 0] CT
0 0 moveto 
1 -1 scale
(=1e-1) t 
GR
GR
GS
[0.75 0 0 0.75 0 0.5] CT
1 LJ
2.667 LW
N
165 272 M
205 272 L
S
GR
GS
[0.75 0 0 0.75 138.75 204.5] CT
10.0 ML
2.667 LW
N
-4 0 M
0 5.32 L
4 0 L
0 -5.32 L
cp
S
GR
GS
[0.75 0 0 0.75 156 224.75] CT
N
/f-967424369{0.922 0 M
0.781 0 0.781 -0.141 QT
0.781 -0.156 0.789 -0.164 QT
0.797 -0.172 0.797 -0.188 QT
6.656 -11.984 L
6.719 -12.172 6.953 -12.172 QT
7.188 -12.172 L
7.422 -12.172 7.5 -11.984 QT
13.344 -0.188 L
13.359 -0.172 13.359 -0.164 QT
13.359 -0.156 13.359 -0.141 QT
13.359 0 13.219 0 QT
0.922 0 L
cp
2.047 -1.359 M
11 -1.359 L
6.531 -10.391 L
2.047 -1.359 L
cp}def
f-967424369
f
GR
GS
[0.75 0 0 0.75 166.5 224.75] CT
N
/f707301723{2.734 0.188 M
1.969 0.188 1.5 -0.375 QT
1.031 -0.938 0.859 -1.734 QT
0.688 -2.531 0.688 -3.313 QT
0.688 -3.328 L
0.688 -4.172 0.844 -5.086 QT
1 -6 1.313 -6.906 QT
1.625 -7.813 1.969 -8.531 QT
2.219 -9.031 2.617 -9.648 QT
3.016 -10.266 3.5 -10.797 QT
3.984 -11.328 4.547 -11.656 QT
5.109 -11.984 5.672 -11.984 QT
5.688 -11.984 L
6.313 -11.984 6.719 -11.648 QT
7.125 -11.313 7.359 -10.781 QT
7.594 -10.25 7.68 -9.641 QT
7.766 -9.031 7.766 -8.484 QT
7.766 -7.203 7.422 -5.859 QT
7.078 -4.516 6.453 -3.266 QT
6.219 -2.797 5.813 -2.156 QT
5.406 -1.516 4.945 -1.008 QT
4.484 -0.5 3.914 -0.156 QT
3.344 0.188 2.75 0.188 QT
2.734 0.188 L
cp
2.766 -0.25 M
3.344 -0.25 3.859 -0.859 QT
4.375 -1.469 4.766 -2.32 QT
5.156 -3.172 5.453 -4.078 QT
5.75 -4.984 5.891 -5.609 QT
2.422 -5.609 L
2.156 -4.547 2 -3.766 QT
1.844 -2.984 1.844 -2.234 QT
1.844 -0.25 2.766 -0.25 QT
cp
2.547 -6.203 M
6.031 -6.203 L
6.219 -6.953 6.328 -7.453 QT
6.438 -7.953 6.508 -8.516 QT
6.578 -9.078 6.578 -9.547 QT
6.578 -11.547 5.672 -11.547 QT
4.594 -11.547 3.813 -9.805 QT
3.031 -8.063 2.547 -6.203 QT
cp}def
f707301723
f
GR
GS
[0.75 0 0 0.75 172.5 224.75] CT
/Helvetica 16.8 F
GS
[1 0 0 1 0 0] CT
0 0 moveto 
1 -1 scale
(=1e-3) t 
GR
GR
GS
[0.75 0 0 0.75 0 0.5] CT
1 0 0 RC
1 LJ
2.667 LW
N
165 292.5 M
205 292.5 L
S
GR
GS
[0.75 0 0 0.75 138.75 219.875] CT
1 0 0 RC
10.0 ML
2.667 LW
N
0 -4 M
0 4 L
-4 0 M
4 0 L
-2.828 -2.828 M
2.828 2.828 L
-2.828 2.828 M
2.828 -2.828 L
S
GR
GS
[0.75 0 0 0.75 156 239.75] CT
N
f-967424369
f
GR
GS
[0.75 0 0 0.75 166.5 239.75] CT
N
f707301723
f
GR
GS
[0.75 0 0 0.75 172.5 239.75] CT
/Helvetica 16.8 F
GS
[1 0 0 1 0 0] CT
0 0 moveto 
1 -1 scale
(=1e-5) t 
GR
GR
GS
[0.75 0 0 0.75 0 0.5] CT
0 0 1 RC
1 LJ
2.667 LW
N
165 313 M
205 313 L
S
GR
GS
[0.75 0 0 0.75 138.75 235.25] CT
0 0 1 RC
10.0 ML
2.667 LW
N
4 0 M
4 -2.209 2.209 -4 0 -4 C
-2.209 -4 -4 -2.209 -4 0 C
-4 2.209 -2.209 4 0 4 C
2.209 4 4 2.209 4 0 C
cp
S
GR
GS
[0.75 0 0 0.75 0 0.5] CT
0.149 GC
10.0 ML
0.667 LW
N
161 325 M
161 260 L
286 260 L
286 325 L
cp
S
GR
%%Trailer
%%Pages: 1
%%EOF
